stringr——处理字符串 - 王诗翔
…
str_detect()函数的变体str_count()返回字符串中匹配的数量：

str_count(x, "a")
#> [1] 1 3 1

str_count()完全可以和mutate()联合使用：

df %>% 
    mutate(
        vowels = str_count(word, "[aeiou]"),
        consonants = str_count(word, "[^aeiou]")
    )
#> # A tibble: 980 x 4
#>    word         i vowels consonants
#>    <chr>    <int>  <int>      <int>
#>  1 a            1      1          0
#>  2 able         2      2          2
#>  3 about        3      3          2
#>  4 absolute     4      4          4
#>  5 accept       5      2          4
#>  6 account      6      3          4
#>  7 achieve      7      4          3
#>  8 across       8      2          4
#>  9 act          9      1          2
#> 10 active      10      3          3
#> # … with 970 more rows
…
这种启发式名词检测的效果并不好，它找出了一些形容词，比如smooth和parked。
如果数据保存在tibble中，使用extract()会更容易，该函数工作方式与str_match()函数类似，只需要为每个分组提供名词以作为结果的新列。

tibble(sentences = sentences) %>% 
    tidyr::extract(
        sentences, c("article", "noun"), "(a|the) ([^ ]+)",
        remove = FALSE
    )
#> # A tibble: 720 x 3
#>    sentences                                   article noun   
#>    <chr>                                       <chr>   <chr>  
#>  1 The birch canoe slid on the smooth planks.  the     smooth 
#>  2 Glue the sheet to the dark blue background. the     sheet  
#>  3 It's easy to tell the depth of a well.      the     depth  
#>  4 These days a chicken leg is a rare dish.    a       chicken
#>  5 Rice is often served in round bowls.        <NA>    <NA>   
#>  6 The juice of lemons makes fine punch.       <NA>    <NA>   
#>  7 The box was thrown beside the parked truck. the     parked 
#>  8 The hogs were fed chopped corn and garbage. <NA>    <NA>   
#>  9 Four hours of steady work faced us.         <NA>    <NA>   
#> 10 Large size in stockings is hard to sell.    <NA>    <NA>   
#> # … with 710 more rows
…
