模型结果为什么那么占存储空间？可以缩小吗？ - 王诗翔
…
axe_fitted(): To remove fitted values.

我们来试一试把这几个都砍掉是否还可以预测：

library(butcher)

先重新弄一个完整模型：

logr_vm <- glm(vs ~ mpg, data = dat, family = binomial)

查看占用：

butcher::weigh(logr_vm)
#> # A tibble: 47 x 2
#>    object               size
#>    <chr>               <dbl>
#>  1 family.variance   0.0437 
#>  2 family.dev.resids 0.0437 
#>  3 family.aic        0.0437 
#>  4 family.validmu    0.0437 
#>  5 family.simulate   0.0437 
#>  6 family.initialize 0.0174 
#>  7 qr.qr             0.00418
#>  8 terms             0.00318
#>  9 residuals         0.00286
#> 10 fitted.values     0.00286
#> # … with 37 more rows
…
是因为模型太小，没必要吗？试一下官方示例模型。

our_model <- function() {
  some_junk_in_the_environment <- runif(1e6) # we didn't know about
  lm(mpg ~ ., data = mtcars)
}

big_lm <- our_model()

butcher::weigh(big_lm)
#> # A tibble: 25 x 2
#>    object            size
#>    <chr>            <dbl>
#>  1 terms         8.01    
#>  2 qr.qr         0.00666 
#>  3 residuals     0.00286 
#>  4 fitted.values 0.00286 
#>  5 effects       0.0014  
#>  6 coefficients  0.00109 
#>  7 call          0.000728
#>  8 model.mpg     0.000304
#>  9 model.cyl     0.000304
#> 10 model.disp    0.000304
#> # … with 15 more rows
…
