…
注意一下你导入tidyverse包时给出的冲突信息（Conflicts），它告诉你dplyr覆盖了R基础包中的函数。如果你想要在载入tidyverse包后仍然使用这些函数，你需要使用函数的全名stats::filter()和stats::lag()进行调用。

nycflights13

我们将使用nycflights13::flights来探索dplyr包基本的数据操作动词。该数据集包含2013年336,776次航班起飞数据，来自美国交通统计局。

flights
#> # A tibble: 336,776 x 19
#>     year month   day dep_time sched_dep_time dep_delay arr_time sched_arr_time
#>    <int> <int> <int>    <int>          <int>     <dbl>    <int>          <int>
#>  1  2013     1     1      517            515         2      830            819
#>  2  2013     1     1      533            529         4      850            830
#>  3  2013     1     1      542            540         2      923            850
#>  4  2013     1     1      544            545        -1     1004           1022
#>  5  2013     1     1      554            600        -6      812            837
#>  6  2013     1     1      554            558        -4      740            728
#>  7  2013     1     1      555            600        -5      913            854
#>  8  2013     1     1      557            600        -3      709            723
#>  9  2013     1     1      557            600        -3      838            846
#> 10  2013     1     1      558            600        -2      753            745
#> # … with 336,766 more rows, and 11 more variables: arr_delay <dbl>,
#> #   carrier <chr>, flight <int>, tailnum <chr>, origin <chr>, dest <chr>,
#> #   air_time <dbl>, distance <dbl>, hour <dbl>, minute <dbl>, time_hour <dttm>
…
随后的参数描述了使用变量名（不加引号）对数据框做什么

结果是一个新的数据框

这些属性一起便利地将多个简单步骤串联起来得到一个复杂的操作（结果）。让我们实际来看看这些动词是怎么工作的。

使用filter()过滤行

filter()允许我们根据观测值来对数据集取子集。第一个参数是数据框的名字，第二和随后的参数是用于过滤数据框的表达式。

比如，我们可以选择所有一月一号的航班：

filter(flights, month == 1, day == 1)
#> # A tibble: 842 x 19
#>     year month   day dep_time sched_dep_time dep_delay arr_time sched_arr_time
#>    <int> <int> <int>    <int>          <int>     <dbl>    <int>          <int>
#>  1  2013     1     1      517            515         2      830            819
#>  2  2013     1     1      533            529         4      850            830
#>  3  2013     1     1      542            540         2      923            850
#>  4  2013     1     1      544            545        -1     1004           1022
#>  5  2013     1     1      554            600        -6      812            837
#>  6  2013     1     1      554            558        -4      740            728
#>  7  2013     1     1      555            600        -5      913            854
#>  8  2013     1     1      557            600        -3      709            723
#>  9  2013     1     1      557            600        -3      838            846
#> 10  2013     1     1      558            600        -2      753            745
#> # … with 832 more rows, and 11 more variables: arr_delay <dbl>, carrier <chr>,
#> #   flight <int>, tailnum <chr>, origin <chr>, dest <chr>, air_time <dbl>,
#> #   distance <dbl>, hour <dbl>, minute <dbl>, time_hour <dttm>

这一行代码dplyr执行了过滤操作并返回了一个新的数据框。dplyr从不修改输入数据，所以如果你想要保存数据，必须使用<-进行赋值：

jan1 <- filter(flights, month == 1, day == 1)

R要么输出结果，要么将结果保存到一个变量。如果我们想要同时做到这一点，你可以把赋值放在括号里：

(dec25 <- filter(flights, month == 12, day == 25))
#> # A tibble: 719 x 19
#>     year month   day dep_time sched_dep_time dep_delay arr_time sched_arr_time
#>    <int> <int> <int>    <int>          <int>     <dbl>    <int>          <int>
#>  1  2013    12    25      456            500        -4      649            651
#>  2  2013    12    25      524            515         9      805            814
#>  3  2013    12    25      542            540         2      832            850
#>  4  2013    12    25      546            550        -4     1022           1027
#>  5  2013    12    25      556            600        -4      730            745
#>  6  2013    12    25      557            600        -3      743            752
#>  7  2013    12    25      557            600        -3      818            831
#>  8  2013    12    25      559            600        -1      855            856
#>  9  2013    12    25      559            600        -1      849            855
#> 10  2013    12    25      600            600         0      850            846
#> # … with 709 more rows, and 11 more variables: arr_delay <dbl>, carrier <chr>,
#> #   flight <int>, tailnum <chr>, origin <chr>, dest <chr>, air_time <dbl>,
#> #   distance <dbl>, hour <dbl>, minute <dbl>, time_hour <dttm>
…
另一个你在使用==时可能遭遇的常见问题是浮点数。下面的结果可能会让你惊掉大牙：

sqrt(2) ^ 2 == 2
#> [1] FALSE
1/49 * 49 == 1
#> [1] FALSE

逻辑操作符

&是与，|是或，!是非。

下面代码找到在十一月或十二月起飞的所有航班：

filter(flights, month == 11 | month == 12)
#> # A tibble: 55,403 x 19
#>     year month   day dep_time sched_dep_time dep_delay arr_time sched_arr_time
#>    <int> <int> <int>    <int>          <int>     <dbl>    <int>          <int>
#>  1  2013    11     1        5           2359         6      352            345
#>  2  2013    11     1       35           2250       105      123           2356
#>  3  2013    11     1      455            500        -5      641            651
#>  4  2013    11     1      539            545        -6      856            827
#>  5  2013    11     1      542            545        -3      831            855
#>  6  2013    11     1      549            600       -11      912            923
#>  7  2013    11     1      550            600       -10      705            659
#>  8  2013    11     1      554            600        -6      659            701
#>  9  2013    11     1      554            600        -6      826            827
#> 10  2013    11     1      554            600        -6      749            751
#> # … with 55,393 more rows, and 11 more variables: arr_delay <dbl>,
#> #   carrier <chr>, flight <int>, tailnum <chr>, origin <chr>, dest <chr>,
#> #   air_time <dbl>, distance <dbl>, hour <dbl>, minute <dbl>, time_hour <dttm>
…
# 就我所见，应该用类型强制转换来解释这个问题
# 在解释性编程语言（R，Python）中，当操作涉及多个数据类型时
# 语言本身会按照特定的规则进行转换。具体网上搜索。

使用arrange()排列行

arrange()函数工作原理和filter()相似，但它不是选择行，而是改变行的顺序。它使用一个数据框和一系列有序的列变量（或者更复杂的表达式）作为输入。如果你提供了超过一个列名，其他列对应着进行排序。

arrange(flights, year, month, day)
#> # A tibble: 336,776 x 19
#>     year month   day dep_time sched_dep_time dep_delay arr_time sched_arr_time
#>    <int> <int> <int>    <int>          <int>     <dbl>    <int>          <int>
#>  1  2013     1     1      517            515         2      830            819
#>  2  2013     1     1      533            529         4      850            830
#>  3  2013     1     1      542            540         2      923            850
#>  4  2013     1     1      544            545        -1     1004           1022
#>  5  2013     1     1      554            600        -6      812            837
#>  6  2013     1     1      554            558        -4      740            728
#>  7  2013     1     1      555            600        -5      913            854
#>  8  2013     1     1      557            600        -3      709            723
#>  9  2013     1     1      557            600        -3      838            846
#> 10  2013     1     1      558            600        -2      753            745
#> # … with 336,766 more rows, and 11 more variables: arr_delay <dbl>,
#> #   carrier <chr>, flight <int>, tailnum <chr>, origin <chr>, dest <chr>,
#> #   air_time <dbl>, distance <dbl>, hour <dbl>, minute <dbl>, time_hour <dttm>

使用desc()可以以逆序（降序）的方式排列：

arrange(flights, desc(arr_delay))
#> # A tibble: 336,776 x 19
#>     year month   day dep_time sched_dep_time dep_delay arr_time sched_arr_time
#>    <int> <int> <int>    <int>          <int>     <dbl>    <int>          <int>
#>  1  2013     1     9      641            900      1301     1242           1530
#>  2  2013     6    15     1432           1935      1137     1607           2120
#>  3  2013     1    10     1121           1635      1126     1239           1810
#>  4  2013     9    20     1139           1845      1014     1457           2210
#>  5  2013     7    22      845           1600      1005     1044           1815
#>  6  2013     4    10     1100           1900       960     1342           2211
#>  7  2013     3    17     2321            810       911      135           1020
#>  8  2013     7    22     2257            759       898      121           1026
#>  9  2013    12     5      756           1700       896     1058           2020
#> 10  2013     5     3     1133           2055       878     1250           2215
#> # … with 336,766 more rows, and 11 more variables: arr_delay <dbl>,
#> #   carrier <chr>, flight <int>, tailnum <chr>, origin <chr>, dest <chr>,
#> #   air_time <dbl>, distance <dbl>, hour <dbl>, minute <dbl>, time_hour <dttm>
…
哪一个航班时间最长？哪一个最短？

# 1
arrange(df, desc(is.na(x)))
#> # A tibble: 3 x 1
#>       x
#>   <dbl>
#> 1    NA
#> 2     5
#> 3     2
# 2
# 迟到最久
arrange(flights, desc(arr_delay))
#> # A tibble: 336,776 x 19
#>     year month   day dep_time sched_dep_time dep_delay arr_time sched_arr_time
#>    <int> <int> <int>    <int>          <int>     <dbl>    <int>          <int>
#>  1  2013     1     9      641            900      1301     1242           1530
#>  2  2013     6    15     1432           1935      1137     1607           2120
#>  3  2013     1    10     1121           1635      1126     1239           1810
#>  4  2013     9    20     1139           1845      1014     1457           2210
#>  5  2013     7    22      845           1600      1005     1044           1815
#>  6  2013     4    10     1100           1900       960     1342           2211
#>  7  2013     3    17     2321            810       911      135           1020
#>  8  2013     7    22     2257            759       898      121           1026
#>  9  2013    12     5      756           1700       896     1058           2020
#> 10  2013     5     3     1133           2055       878     1250           2215
#> # … with 336,766 more rows, and 11 more variables: arr_delay <dbl>,
#> #   carrier <chr>, flight <int>, tailnum <chr>, origin <chr>, dest <chr>,
#> #   air_time <dbl>, distance <dbl>, hour <dbl>, minute <dbl>, time_hour <dttm>
# 出发最早
arrange(flights, dep_delay)
#> # A tibble: 336,776 x 19
#>     year month   day dep_time sched_dep_time dep_delay arr_time sched_arr_time
#>    <int> <int> <int>    <int>          <int>     <dbl>    <int>          <int>
#>  1  2013    12     7     2040           2123       -43       40           2352
#>  2  2013     2     3     2022           2055       -33     2240           2338
#>  3  2013    11    10     1408           1440       -32     1549           1559
#>  4  2013     1    11     1900           1930       -30     2233           2243
#>  5  2013     1    29     1703           1730       -27     1947           1957
#>  6  2013     8     9      729            755       -26     1002            955
#>  7  2013    10    23     1907           1932       -25     2143           2143
#>  8  2013     3    30     2030           2055       -25     2213           2250
#>  9  2013     3     2     1431           1455       -24     1601           1631
#> 10  2013     5     5      934            958       -24     1225           1309
#> # … with 336,766 more rows, and 11 more variables: arr_delay <dbl>,
#> #   carrier <chr>, flight <int>, tailnum <chr>, origin <chr>, dest <chr>,
#> #   air_time <dbl>, distance <dbl>, hour <dbl>, minute <dbl>, time_hour <dttm>

# 3
# 最快的航班排序
arrange(flights, air_time)
#> # A tibble: 336,776 x 19
#>     year month   day dep_time sched_dep_time dep_delay arr_time sched_arr_time
#>    <int> <int> <int>    <int>          <int>     <dbl>    <int>          <int>
#>  1  2013     1    16     1355           1315        40     1442           1411
#>  2  2013     4    13      537            527        10      622            628
#>  3  2013    12     6      922            851        31     1021            954
#>  4  2013     2     3     2153           2129        24     2247           2224
#>  5  2013     2     5     1303           1315       -12     1342           1411
#>  6  2013     2    12     2123           2130        -7     2211           2225
#>  7  2013     3     2     1450           1500       -10     1547           1608
#>  8  2013     3     8     2026           1935        51     2131           2056
#>  9  2013     3    18     1456           1329        87     1533           1426
#> 10  2013     3    19     2226           2145        41     2305           2246
#> # … with 336,766 more rows, and 11 more variables: arr_delay <dbl>,
#> #   carrier <chr>, flight <int>, tailnum <chr>, origin <chr>, dest <chr>,
#> #   air_time <dbl>, distance <dbl>, hour <dbl>, minute <dbl>, time_hour <dttm>
…
使用select()选择列

一般我们分析的原始数据集有非常多的变量（列），第一个我们要解决的问题就是缩小范围找到我们需要的数据（变量）。select()允许我们快速通过变量名对数据集取子集。

# 根据名字选择列
select(flights, year, month, day)
#> # A tibble: 336,776 x 3
#>     year month   day
#>    <int> <int> <int>
#>  1  2013     1     1
#>  2  2013     1     1
#>  3  2013     1     1
#>  4  2013     1     1
#>  5  2013     1     1
#>  6  2013     1     1
#>  7  2013     1     1
#>  8  2013     1     1
#>  9  2013     1     1
#> 10  2013     1     1
#> # … with 336,766 more rows

# 选择year到day之间（包含本身）的所有列
select(flights, year:day)
#> # A tibble: 336,776 x 3
#>     year month   day
#>    <int> <int> <int>
#>  1  2013     1     1
#>  2  2013     1     1
#>  3  2013     1     1
#>  4  2013     1     1
#>  5  2013     1     1
#>  6  2013     1     1
#>  7  2013     1     1
#>  8  2013     1     1
#>  9  2013     1     1
#> 10  2013     1     1
#> # … with 336,766 more rows

# 选择那么除year到day的所有列
select(flights, -(year:day))
#> # A tibble: 336,776 x 16
#>    dep_time sched_dep_time dep_delay arr_time sched_arr_time arr_delay carrier
#>       <int>          <int>     <dbl>    <int>          <int>     <dbl> <chr>  
#>  1      517            515         2      830            819        11 UA     
#>  2      533            529         4      850            830        20 UA     
#>  3      542            540         2      923            850        33 AA     
#>  4      544            545        -1     1004           1022       -18 B6     
#>  5      554            600        -6      812            837       -25 DL     
#>  6      554            558        -4      740            728        12 UA     
#>  7      555            600        -5      913            854        19 B6     
#>  8      557            600        -3      709            723       -14 EV     
#>  9      557            600        -3      838            846        -8 B6     
#> 10      558            600        -2      753            745         8 AA     
#> # … with 336,766 more rows, and 9 more variables: flight <int>, tailnum <chr>,
#> #   origin <chr>, dest <chr>, air_time <dbl>, distance <dbl>, hour <dbl>,
#> #   minute <dbl>, time_hour <dttm>
…
ends_with("xyz")匹配以“xyz”结尾的名字。

contains("ijk")匹配包含“ijk”的名字。

matches("(.)\\1")选择符合正则表达式的变量。这里是任意包含有重复字符的变量。

num_range("x", 1:3)匹配x1，x2，x3。

运行?select查看更多详情。

select()也可以用来重命名变量，但很少使用到，因为它会将所有未显示指定的变量删除掉。我们可以使用它的变体函数rename()来给变量重新命名：

rename(flights, tail_num = tailnum)
#> # A tibble: 336,776 x 19
#>     year month   day dep_time sched_dep_time dep_delay arr_time sched_arr_time
#>    <int> <int> <int>    <int>          <int>     <dbl>    <int>          <int>
#>  1  2013     1     1      517            515         2      830            819
#>  2  2013     1     1      533            529         4      850            830
#>  3  2013     1     1      542            540         2      923            850
#>  4  2013     1     1      544            545        -1     1004           1022
#>  5  2013     1     1      554            600        -6      812            837
#>  6  2013     1     1      554            558        -4      740            728
#>  7  2013     1     1      555            600        -5      913            854
#>  8  2013     1     1      557            600        -3      709            723
#>  9  2013     1     1      557            600        -3      838            846
#> 10  2013     1     1      558            600        -2      753            745
#> # … with 336,766 more rows, and 11 more variables: arr_delay <dbl>,
#> #   carrier <chr>, flight <int>, tail_num <chr>, origin <chr>, dest <chr>,
#> #   air_time <dbl>, distance <dbl>, hour <dbl>, minute <dbl>, time_hour <dttm>

select()的另外一个操作是与everything()帮助函数联合使用。当你有一大堆变量你想要移动到数据框开始（最左侧）时非常有用。

select(flights, time_hour, air_time, everything())
#> # A tibble: 336,776 x 19
#>    time_hour           air_time  year month   day dep_time sched_dep_time
#>    <dttm>                 <dbl> <int> <int> <int>    <int>          <int>
#>  1 2013-01-01 05:00:00      227  2013     1     1      517            515
#>  2 2013-01-01 05:00:00      227  2013     1     1      533            529
#>  3 2013-01-01 05:00:00      160  2013     1     1      542            540
#>  4 2013-01-01 05:00:00      183  2013     1     1      544            545
#>  5 2013-01-01 06:00:00      116  2013     1     1      554            600
#>  6 2013-01-01 05:00:00      150  2013     1     1      554            558
#>  7 2013-01-01 06:00:00      158  2013     1     1      555            600
#>  8 2013-01-01 06:00:00       53  2013     1     1      557            600
#>  9 2013-01-01 06:00:00      140  2013     1     1      557            600
#> 10 2013-01-01 06:00:00      138  2013     1     1      558            600
#> # … with 336,766 more rows, and 12 more variables: dep_delay <dbl>,
#> #   arr_time <int>, sched_arr_time <int>, arr_delay <dbl>, carrier <chr>,
#> #   flight <int>, tailnum <chr>, origin <chr>, dest <chr>, distance <dbl>,
#> #   hour <dbl>, minute <dbl>
…
one_of()函数是用来做什么的？为什么它与下面这个向量结合使用会非常有用？

    var <- c(
    "year", "month", "day", "dep_delay", "arr_delay"
    )

下面代码的运行结果会让你吃惊吗？这个select的帮助函数默认是怎样处理这种情况的呢？你怎样改变默认的情况？

# 1
# 基本select用法，使用:，使用-去除其他的，使用%in%等等

# 2
select(flights, year, year)
#> # A tibble: 336,776 x 1
#>     year
#>    <int>
#>  1  2013
#>  2  2013
#>  3  2013
#>  4  2013
#>  5  2013
#>  6  2013
#>  7  2013
#>  8  2013
#>  9  2013
#> 10  2013
#> # … with 336,766 more rows
# 只会选择一次

# 3
# `one_of()`函数
vars <- c("year", "month", "day", "dep_delay", "arr_delay")
select(flights,  one_of(vars))
#> # A tibble: 336,776 x 5
#>     year month   day dep_delay arr_delay
#>    <int> <int> <int>     <dbl>     <dbl>
#>  1  2013     1     1         2        11
#>  2  2013     1     1         4        20
#>  3  2013     1     1         2        33
#>  4  2013     1     1        -1       -18
#>  5  2013     1     1        -6       -25
#>  6  2013     1     1        -4        12
#>  7  2013     1     1        -5        19
#>  8  2013     1     1        -3       -14
#>  9  2013     1     1        -3        -8
#> 10  2013     1     1        -2         8
#> # … with 336,766 more rows
# 这种用法可以有效地按数据情况进行选择而不会报错

# 4
select(flights, contains("TIME"))
#> # A tibble: 336,776 x 6
#>    dep_time sched_dep_time arr_time sched_arr_time air_time time_hour          
#>       <int>          <int>    <int>          <int>    <dbl> <dttm>             
#>  1      517            515      830            819      227 2013-01-01 05:00:00
#>  2      533            529      850            830      227 2013-01-01 05:00:00
#>  3      542            540      923            850      160 2013-01-01 05:00:00
#>  4      544            545     1004           1022      183 2013-01-01 05:00:00
#>  5      554            600      812            837      116 2013-01-01 06:00:00
#>  6      554            558      740            728      150 2013-01-01 05:00:00
#>  7      555            600      913            854      158 2013-01-01 06:00:00
#>  8      557            600      709            723       53 2013-01-01 06:00:00
#>  9      557            600      838            846      140 2013-01-01 06:00:00
#> 10      558            600      753            745      138 2013-01-01 06:00:00
#> # … with 336,766 more rows
…
