…
```R
starwars %>% 
  summarise(across(where(is.character), ~ length(unique(.x))))
#> # A tibble: 1 x 8
#>    name hair_color skin_color eye_color   sex gender homeworld species
#>   <int>      <int>      <int>     <int> <int>  <int>     <int>   <int>
#> 1    87         13         31        15     5      3        49      38

starwars %>% 
  group_by(species) %>% 
  filter(n() > 1) %>% 
  summarise(across(c(sex, gender, homeworld), ~ length(unique(.x))))
#> `summarise()` ungrouping output (override with `.groups` argument)
#> # A tibble: 9 x 4
#>   species    sex gender homeworld
#>   <chr>    <int>  <int>     <int>
#> 1 Droid        1      2         3
#> 2 Gungan       1      1         1
#> 3 Human        2      2        16
#> 4 Kaminoan     2      2         1
#> # … with 5 more rows

starwars %>% 
  group_by(homeworld) %>% 
  filter(n() > 1) %>% 
  summarise(across(where(is.numeric), ~ mean(.x, na.rm = TRUE)))
#> `summarise()` ungrouping output (override with `.groups` argument)
#> # A tibble: 10 x 4
#>   homeworld height  mass birth_year
#>   <chr>      <dbl> <dbl>      <dbl>
#> 1 Alderaan    176.  64         43  
#> 2 Corellia    175   78.5       25  
#> 3 Coruscant   174.  50         91  
#> 4 Kamino      208.  83.1       31.5
#> # … with 6 more rows
```
…
- 查找所有没有变量缺失值的行：

  ```R
  starwars %>% filter(across(everything(), ~ !is.na(.x)))
  #> # A tibble: 29 x 14
  #>   name  height  mass hair_color skin_color eye_color birth_year sex   gender
  #>   <chr>  <int> <dbl> <chr>      <chr>      <chr>          <dbl> <chr> <chr> 
  #> 1 Luke…    172    77 blond      fair       blue            19   male  mascu…
  #> 2 Dart…    202   136 none       white      yellow          41.9 male  mascu…
  #> 3 Leia…    150    49 brown      light      brown           19   fema… femin…
  #> 4 Owen…    178   120 brown, gr… light      blue            52   male  mascu…
  #> # … with 25 more rows, and 5 more variables: homeworld <chr>, species <chr>,
  #> #   films <list>, vehicles <list>, starships <list>
  ```

对一些像 `group_by()`、`count()` 和 `distinct()` 这样的动词，你可以省略汇总函数：

- 寻找所有的唯一值：

  ```R
  starwars %>% distinct(across(contains("color")))
  #> # A tibble: 67 x 3
  #>   hair_color skin_color  eye_color
  #>   <chr>      <chr>       <chr>    
  #> 1 blond      fair        blue     
  #> 2 <NA>       gold        yellow   
  #> 3 <NA>       white, blue red      
  #> 4 none       white       yellow   
  #> # … with 63 more rows
  ```

- 计算给定模式下所有变量的组合数目：

  ```R
  starwars %>% count(across(contains("color")), sort = TRUE)
  #> # A tibble: 67 x 4
  #>   hair_color skin_color eye_color     n
  #>   <chr>      <chr>      <chr>     <int>
  #> 1 brown      light      brown         6
  #> 2 brown      fair       blue          4
  #> 3 none       grey       black         4
  #> 4 black      dark       brown         3
  #> # … with 63 more rows
  ```
…
