…
`rowwise()` 仅是分组的一个特殊形式，因此如果你想要将其从数据框中移除，调用 `ungroup()` 即可。

## 按行汇总统计

`dplyr::summarise()` 让一列多行的统计汇总变得非常简单，当它与 `rowwise()` 结合时，它也可以简便地操作汇总一行多列。为了查看它是怎样工作的，我们从创建一个小的数据框开始：

```R
df <- tibble(id = 1:6, w = 10:15, x = 20:25, y = 30:35, z = 40:45)
df
#> # A tibble: 6 x 5
#>      id     w     x     y     z
#>   <int> <int> <int> <int> <int>
#> 1     1    10    20    30    40
#> 2     2    11    21    31    41
#> 3     3    12    22    32    42
#> 4     4    13    23    33    43
#> # … with 2 more rows
```

假设我们想要计算每行 `w`, `x`, `y`, 和 `z` 的和，我们县创建一个行式数据框：

```R
rf <- df %>% rowwise(id)
```

我们然后使用 `mutate()` 添加一个新的列，或者使用 `summarise()` 仅返回一个汇总列：

```R
rf %>% mutate(total = sum(c(w, x, y, z)))
#> # A tibble: 6 x 6
#> # Rowwise:  id
#>      id     w     x     y     z total
#>   <int> <int> <int> <int> <int> <int>
#> 1     1    10    20    30    40   100
#> 2     2    11    21    31    41   104
#> 3     3    12    22    32    42   108
#> 4     4    13    23    33    43   112
#> # … with 2 more rows
rf %>% summarise(total = sum(c(w, x, y, z)))
#> `summarise()` regrouping output by 'id' (override with `.groups` argument)
#> # A tibble: 6 x 2
#> # Groups:   id [6]
#>      id total
#>   <int> <int>
#> 1     1   100
#> 2     2   104
#> 3     3   108
#> 4     4   112
#> # … with 2 more rows
```

当然，如果你有大量的变量，键入每个变量名将非常无聊。因此，你可以使用 `c_across()` ，它支持 tidy 选择语法，因而你可以一次性选择许多变量：

```R
rf %>% mutate(total = sum(c_across(w:z)))
#> # A tibble: 6 x 6
#> # Rowwise:  id
#>      id     w     x     y     z total
#>   <int> <int> <int> <int> <int> <int>
#> 1     1    10    20    30    40   100
#> 2     2    11    21    31    41   104
#> 3     3    12    22    32    42   108
#> 4     4    13    23    33    43   112
#> # … with 2 more rows
rf %>% mutate(total = sum(c_across(where(is.numeric))))
#> # A tibble: 6 x 6
#> # Rowwise:  id
#>      id     w     x     y     z total
#>   <int> <int> <int> <int> <int> <int>
#> 1     1    10    20    30    40   100
#> 2     2    11    21    31    41   104
#> 3     3    12    22    32    42   108
#> 4     4    13    23    33    43   112
#> # … with 2 more rows
```

你可以结合列式操作（见前一篇文章）计算每一行的比例：

```R
rf %>% 
  mutate(total = sum(c_across(w:z))) %>% 
  ungroup() %>% 
  mutate(across(w:z, ~ . / total))
#> # A tibble: 6 x 6
#>      id     w     x     y     z total
#>   <int> <dbl> <dbl> <dbl> <dbl> <int>
#> 1     1 0.1   0.2   0.3   0.4     100
#> 2     2 0.106 0.202 0.298 0.394   104
#> 3     3 0.111 0.204 0.296 0.389   108
#> 4     4 0.116 0.205 0.295 0.384   112
#> # … with 2 more rows
```

### 行式汇总函数

`rowwise()` 方法支持任何的汇总函数。但如果你要考虑计算的速度，寻找能够完成任务的内置的行式汇总函数非常值得。它们的效率更高，因为它们不会将数据切分为行，然后计算统计量，最后再把结果拼起来，它们将整个数据框作为一个整体进行操作。

```R
df %>% mutate(total = rowSums(across(where(is.numeric))))
#> # A tibble: 6 x 6
#>      id     w     x     y     z total
#>   <int> <int> <int> <int> <int> <dbl>
#> 1     1    10    20    30    40   101
#> 2     2    11    21    31    41   106
#> 3     3    12    22    32    42   111
#> 4     4    13    23    33    43   116
#> # … with 2 more rows
df %>% mutate(mean = rowMeans(across(where(is.numeric))))
#> # A tibble: 6 x 6
#>      id     w     x     y     z  mean
#>   <int> <int> <int> <int> <int> <dbl>
#> 1     1    10    20    30    40  20.2
#> 2     2    11    21    31    41  21.2
#> 3     3    12    22    32    42  22.2
#> 4     4    13    23    33    43  23.2
#> # … with 2 more rows
```
…
或轻松访问各模型的参数：

```R
mods %>% summarise(broom::tidy(mod))
#> `summarise()` regrouping output by 'cyl' (override with `.groups` argument)
#> # A tibble: 6 x 6
#> # Groups:   cyl [3]
#>     cyl term        estimate std.error statistic    p.value
#>   <dbl> <chr>          <dbl>     <dbl>     <dbl>      <dbl>
#> 1     4 (Intercept)    39.6       4.35      9.10 0.00000777
#> 2     4 wt             -5.65      1.85     -3.05 0.0137    
#> 3     6 (Intercept)    28.4       4.18      6.79 0.00105   
#> 4     6 wt             -2.78      1.33     -2.08 0.0918    
#> # … with 2 more rows
```
…
### 重复组合

如果您想为每个输入组合调用一个函数，该怎么办？你可以使用 `expand.grid()`或者`tidyr::expand_grid()`来生成数据帧，然后重复上面的模式：

```R
df <- expand.grid(mean = c(-1, 0, 1), sd = c(1, 10, 100))

df %>% 
  rowwise() %>% 
  mutate(data = list(rnorm(10, mean, sd)))
#> # A tibble: 9 x 3
#> # Rowwise: 
#>    mean    sd data      
#>   <dbl> <dbl> <list>    
#> 1    -1     1 <dbl [10]>
#> 2     0     1 <dbl [10]>
#> 3     1     1 <dbl [10]>
#> 4    -1    10 <dbl [10]>
#> # … with 5 more rows
```
…
