使用R tidyverse 进行探索性分析EDA - 王诗翔
…
图中每个圆圈的大小显示每个值组合处发生的观察次数。 共变将表现为具体x值与具体y值之间的强相关性。

另外一种方法是使用dplyr计算计数：

diamonds %>% 
    count(color, cut)
#> # A tibble: 35 x 3
#>    color cut           n
#>    <ord> <ord>     <int>
#>  1 D     Fair        163
#>  2 D     Good        662
#>  3 D     Very Good  1513
#>  4 D     Premium    1603
#>  5 D     Ideal      2834
#>  6 E     Fair        224
#>  7 E     Good        933
#>  8 E     Very Good  2400
#>  9 E     Premium    2337
#> 10 E     Ideal      3903
#> # … with 25 more rows
…
