modelr——基础模型实现 - 王诗翔
…
现在可以使用purrr计算前面定义的所有模型和数据间的距离了。这里我们需要一个辅助函数，因为距离函数希望模型是一个长度为2的数值向量。

sim1_dist = function(a1, a2) {
    measure_distance(c(a1, a2), sim1)
}
models = models %>% 
    mutate(dist = purrr::map2_dbl(a1, a2, sim1_dist))
models
#> # A tibble: 250 x 3
#>       a1     a2  dist
#>    <dbl>  <dbl> <dbl>
#>  1 26.7  3.55   31.1 
#>  2 -7.60 2.19   11.2 
#>  3 13.7  1.72    8.00
#>  4 -1.99 1.25   11.1 
#>  5 35.2  4.70   46.3 
#>  6 15.1  0.0486  6.14
#>  7 -7.92 1.99   12.7 
#>  8 38.3  1.28   30.0 
#>  9 24.3  1.90   19.4 
#> 10 25.3  1.43   17.9 
#> # ... with 240 more rows
…
残差

与预测值相对的是残差，预测值可以告诉我们模型捕获的模式，而残差则表示模型漏掉的部分。残差就是我们前面计算过的观测值与预测值间的距离。

我们使用add_residuals()将残差添加到数据中，注意我们使用的是原始数据，因为计算残差需要使用实际的y值：

sim1 = sim1 %>% 
    add_residuals(sim1_mod)
sim1
#> # A tibble: 30 x 3
#>        x     y    resid
#>    <int> <dbl>    <dbl>
#>  1     1  4.20 -2.07   
#>  2     1  7.51  1.24   
#>  3     1  2.13 -4.15   
#>  4     2  8.99  0.665  
#>  5     2 10.2   1.92   
#>  6     2 11.3   2.97   
#>  7     3  7.36 -3.02   
#>  8     3 10.5   0.130  
#>  9     3 10.5   0.136  
#> 10     4 12.4   0.00763
#> # ... with 20 more rows
…
mod1 = lm(y ~ x1 + x2, data = sim3)
mod2 = lm(y ~ x1 * x2, data = sim3)

要想对模型可视化，需要两种新技巧：

因为有两个预测变量，所以我们需要将它们都传给data_grid()，它会找出唯一值并进行组合

要想为以上两个模型同时生成预测，可以使用gather_predictions()函数，它可以将每个预测作为一行加入数据框，互补函数spread_predictions()可以将每个预测作为1列加入数据框。

grid = sim3 %>% 
    data_grid(x1, x2) %>% 
    gather_predictions(mod1, mod2)
grid
#> # A tibble: 80 x 4
#>    model    x1 x2     pred
#>    <chr> <int> <fct> <dbl>
#>  1 mod1      1 a      1.67
#>  2 mod1      1 b      4.56
#>  3 mod1      1 c      6.48
#>  4 mod1      1 d      4.03
#>  5 mod1      2 a      1.48
#>  6 mod1      2 b      4.37
#>  7 mod1      2 c      6.28
#>  8 mod1      2 d      3.84
#>  9 mod1      3 a      1.28
#> 10 mod1      3 b      4.17
#> # ... with 70 more rows
…
